<?xml version="1.0" encoding="UTF-8" standalone="no"?>
<!-- Created with Inkscape (http://www.inkscape.org/) -->

<svg
   xmlns:dc="http://purl.org/dc/elements/1.1/"
   xmlns:cc="http://creativecommons.org/ns#"
   xmlns:rdf="http://www.w3.org/1999/02/22-rdf-syntax-ns#"
   xmlns:svg="http://www.w3.org/2000/svg"
   xmlns="http://www.w3.org/2000/svg"
   xmlns:sodipodi="http://sodipodi.sourceforge.net/DTD/sodipodi-0.dtd"
   xmlns:inkscape="http://www.inkscape.org/namespaces/inkscape"
   width="297mm"
   height="210mm"
   viewBox="0 0 297 210"
   version="1.1"
   id="svg8"
   inkscape:version="0.92.4 (5da689c313, 2019-01-14)"
   sodipodi:docname="dibujo.svg">
  <defs
     id="defs2" />
  <sodipodi:namedview
     id="base"
     pagecolor="#ffffff"
     bordercolor="#666666"
     borderopacity="1.0"
     inkscape:pageopacity="0.0"
     inkscape:pageshadow="2"
     inkscape:zoom="0.7"
     inkscape:cx="554.65292"
     inkscape:cy="438.9152"
     inkscape:document-units="mm"
     inkscape:current-layer="layer1"
     showgrid="false"
     inkscape:window-width="1366"
     inkscape:window-height="707"
     inkscape:window-x="0"
     inkscape:window-y="0"
     inkscape:window-maximized="1" />
  <metadata
     id="metadata5">
    <rdf:RDF>
      <cc:Work
         rdf:about="">
        <dc:format>image/svg+xml</dc:format>
        <dc:type
           rdf:resource="http://purl.org/dc/dcmitype/StillImage" />
        <dc:title></dc:title>
      </cc:Work>
    </rdf:RDF>
  </metadata>
  <g
     inkscape:label="Capa 1"
     inkscape:groupmode="layer"
     id="layer1"
     transform="translate(0,-87)">
    <text
       xml:space="preserve"
       style="font-style:normal;font-weight:normal;font-size:10.58333302px;line-height:1.25;font-family:sans-serif;letter-spacing:0px;word-spacing:0px;fill:#000000;fill-opacity:1;stroke:none;stroke-width:0.26458332"
       x="56.126598"
       y="121.6712"
       id="text817"><tspan
         sodipodi:role="line"
         x="56.126598"
         y="121.6712"
         style="stroke-width:0.26458332"
         id="tspan819">sqlite3 ok</tspan><tspan
         sodipodi:role="line"
         x="56.126598"
         y="134.90038"
         style="stroke-width:0.26458332"
         id="tspan823">dia ok</tspan></text>
    <rect
       style="fill:none;fill-opacity:1;stroke:#e426bc;stroke-width:1.05833333;stroke-miterlimit:4;stroke-dasharray:none;stroke-opacity:1"
       id="rect825"
       width="40.624966"
       height="40.624966"
       x="16.570711"
       y="155.34715" />
    <text
       xml:space="preserve"
       style="font-style:normal;font-weight:normal;font-size:10.58333302px;line-height:1.25;font-family:sans-serif;letter-spacing:0px;word-spacing:0px;fill:#000000;fill-opacity:1;stroke:none;stroke-width:0.26458332"
       x="12.828938"
       y="214.41371"
       id="text829"><tspan
         sodipodi:role="line"
         id="tspan827"
         x="12.828938"
         y="214.41371"
         style="stroke-width:0.26458332">Motor db</tspan><tspan
         sodipodi:role="line"
         x="12.828938"
         y="227.64288"
         style="stroke-width:0.26458332"
         id="tspan831">o software</tspan></text>
    <circle
       style="fill:none;fill-opacity:1;stroke:#e426bc;stroke-width:1.05833328;stroke-miterlimit:4;stroke-dasharray:none;stroke-opacity:1"
       id="path833"
       cx="126.68576"
       cy="178.33234"
       r="20.312483" />
    <text
       xml:space="preserve"
       style="font-style:normal;font-weight:normal;font-size:10.58333302px;line-height:1.25;font-family:sans-serif;letter-spacing:0px;word-spacing:0px;fill:#000000;fill-opacity:1;stroke:none;stroke-width:0.26458332"
       x="105.83874"
       y="212.8101"
       id="text837"><tspan
         sodipodi:role="line"
         id="tspan835"
         x="105.83874"
         y="212.8101"
         style="stroke-width:0.26458332">Instrucciones</tspan><tspan
         sodipodi:role="line"
         x="105.83874"
         y="226.03928"
         style="stroke-width:0.26458332"
         id="tspan839">SQL</tspan></text>
    <path
       style="fill:#00ffff;fill-opacity:1;stroke:#e426bc;stroke-width:1.05833328;stroke-miterlimit:4;stroke-dasharray:none;stroke-opacity:1"
       d="m 68.568417,170.23139 -5.627047,3.24838 -5.627047,3.2489 5.627047,3.2489 5.627047,3.24838 v -3.87522 h 36.601903 v -4.35942 H 68.568417 Z"
       id="path841"
       inkscape:connector-curvature="0" />
    <flowRoot
       xml:space="preserve"
       id="flowRoot851"
       style="font-style:normal;font-weight:normal;font-size:24.0000003px;line-height:1.25;font-family:sans-serif;letter-spacing:0px;word-spacing:0px;fill:#000000;fill-opacity:1;stroke:none;"
       transform="matrix(0.26458333,0,0,0.26458333,0,87)"><flowRegion
         id="flowRegion853"
         style="font-size:24.0000003px;"><rect
           id="rect855"
           width="127.27922"
           height="67.680222"
           x="78.791901"
           y="291.655"
           style="font-size:24.0000003px;" /></flowRegion><flowPara
         id="flowPara857">Programa</flowPara></flowRoot>    <flowRoot
       transform="matrix(0.35794532,0,0,0.35794532,86.395344,59.361386)"
       style="font-style:normal;font-weight:normal;font-size:24px;line-height:1.25;font-family:sans-serif;letter-spacing:0px;word-spacing:0px;fill:#000000;fill-opacity:1;stroke:none"
       id="flowRoot865"
       xml:space="preserve"><flowRegion
         style="font-size:24px"
         id="flowRegion861"><rect
           style="font-size:24px"
           y="291.655"
           x="78.791901"
           height="67.680222"
           width="127.27922"
           id="rect859" /></flowRegion><flowPara
         id="flowPara863">texto</flowPara></flowRoot>    <text
       xml:space="preserve"
       style="font-style:normal;font-weight:normal;font-size:10.58333302px;line-height:1.25;font-family:sans-serif;letter-spacing:0px;word-spacing:0px;fill:#000000;fill-opacity:1;stroke:none;stroke-width:0.26458332"
       x="146.4637"
       y="167.90883"
       id="text869"><tspan
         sodipodi:role="line"
         id="tspan867"
         x="146.4637"
         y="167.90883"
         style="stroke-width:0.26458332">instruccion en SHELL</tspan><tspan
         sodipodi:role="line"
         x="146.4637"
         y="181.138"
         style="stroke-width:0.26458332"
         id="tspan871" /><tspan
         sodipodi:role="line"
         x="146.4637"
         y="194.36716"
         style="stroke-width:0.26458332"
         id="tspan873">archivo .sql</tspan></text>
  </g>
</svg>
